{"dashboard": {
  "id": null,
  "title": "CPU usage stats measured by hww application",
  "timezone": "utc",
  "annotations": {
    "list": []
  },
  "refresh": "10s",
  "editable": true,
  "gnetId": null,
  "graphTooltip": 0,
  "links": [],
  "panels": [
    {
      "aliasColors": {},
      "bars": false,
      "dashLength": 10,
      "dashes": false,
      "datasource": "Prometheus",
      "decimals": 2,
      "editable": true,
      "error": false,
      "fill": 4,
      "grid": {},
      "gridPos": {
        "h": 7,
        "w": 24,
        "x": 0,
        "y": 0
      },
      "id": 1,
      "interval": "",
      "isNew": true,
      "legend": {
        "alignAsTable": true,
        "avg": true,
        "current": true,
        "max": true,
        "min": false,
        "rightSide": true,
        "show": true,
        "total": false,
        "values": true
      },
      "lines": true,
      "linewidth": 2,
      "links": [],
      "nullPointMode": "connected",
      "options": {},
      "percentage": false,
      "pointradius": 5,
      "points": false,
      "renderer": "flot",
      "seriesOverrides": [],
      "spaceLength": 10,
      "stack": true,
      "steppedLine": false,
      "targets": [
        {
          "expr": "iowait",
          "format": "time_series",
          "interval": "",
          "intervalFactor": 1,
          "legendFormat": "iowait",
          "refId": "A"
        },
        {
          "expr": "nice",
          "format": "time_series",
          "interval": "",
          "intervalFactor": 1,
          "legendFormat": "nice",
          "refId": "B"
        },
        {
          "expr": "user",
          "format": "time_series",
          "intervalFactor": 1,
          "legendFormat": "user",
          "refId": "C"
        },
        {
          "expr": "system",
          "format": "time_series",
          "intervalFactor": 1,
          "legendFormat": "system",
          "refId": "D"
        },
        {
          "expr": "irq",
          "format": "time_series",
          "intervalFactor": 1,
          "legendFormat": "irq",
          "refId": "E"
        },
        {
          "expr": "softirq",
          "format": "time_series",
          "intervalFactor": 1,
          "legendFormat": "softirq",
          "refId": "F"
        },
        {
          "expr": "steal",
          "format": "time_series",
          "intervalFactor": 1,
          "legendFormat": "steal",
          "refId": "G"
        },
        {
          "expr": "guest",
          "format": "time_series",
          "intervalFactor": 1,
          "legendFormat": "guest",
          "refId": "H"
        },
        {
          "expr": "guest_nice",
          "format": "time_series",
          "intervalFactor": 1,
          "legendFormat": "guest_nice",
          "refId": "I"
        }
      ],
      "thresholds": [],
      "timeFrom": null,
      "timeRegions": [],
      "timeShift": null,
      "title": "CPU Usage",
      "tooltip": {
        "msResolution": true,
        "shared": true,
        "sort": 2,
        "value_type": "individual"
      },
      "type": "graph",
      "xaxis": {
        "buckets": null,
        "mode": "time",
        "name": null,
        "show": true,
        "values": []
      },
      "yaxes": [
        {
          "format": "percent",
          "label": null,
          "logBase": 1,
          "max": 100,
          "min": 0,
          "show": true
        },
        {
          "format": "short",
          "label": null,
          "logBase": 1,
          "max": null,
          "min": 0,
          "show": true
        }
      ],
      "yaxis": {
        "align": false,
        "alignLevel": null
      }
    },
    {
      "aliasColors": {
        "load_avg1": "orange",
        "load_avg15": "red",
        "load_avg5": "yellow"
      },
      "bars": false,
      "dashLength": 10,
      "dashes": false,
      "datasource": "Prometheus",
      "decimals": 2,
      "editable": true,
      "error": false,
      "fill": 4,
      "grid": {},
      "gridPos": {
        "h": 7,
        "w": 24,
        "x": 0,
        "y": 7
      },
      "id": 3,
      "interval": "",
      "isNew": true,
      "legend": {
        "alignAsTable": true,
        "avg": true,
        "current": true,
        "max": true,
        "min": false,
        "rightSide": true,
        "show": true,
        "total": false,
        "values": true
      },
      "lines": true,
      "linewidth": 2,
      "links": [],
      "nullPointMode": "connected",
      "options": {},
      "percentage": false,
      "pointradius": 5,
      "points": false,
      "renderer": "flot",
      "seriesOverrides": [],
      "spaceLength": 10,
      "stack": false,
      "steppedLine": false,
      "targets": [
        {
          "expr": "load_avg1",
          "format": "time_series",
          "interval": "",
          "intervalFactor": 1,
          "legendFormat": "load_avg1",
          "refId": "A"
        },
        {
          "expr": "load_avg5",
          "format": "time_series",
          "interval": "",
          "intervalFactor": 1,
          "legendFormat": "load_avg5",
          "refId": "B"
        },
        {
          "expr": "load_avg15",
          "format": "time_series",
          "interval": "",
          "intervalFactor": 1,
          "legendFormat": "load_avg15",
          "refId": "C"
        }
      ],
      "thresholds": [],
      "timeFrom": null,
      "timeRegions": [],
      "timeShift": null,
      "title": "Load average",
      "tooltip": {
        "msResolution": true,
        "shared": true,
        "sort": 2,
        "value_type": "individual"
      },
      "type": "graph",
      "xaxis": {
        "buckets": null,
        "mode": "time",
        "name": null,
        "show": true,
        "values": []
      },
      "yaxes": [
        {
          "format": "short",
          "label": null,
          "logBase": 1,
          "max": null,
          "min": 0,
          "show": true
        },
        {
          "format": "short",
          "label": null,
          "logBase": 1,
          "max": null,
          "min": 0,
          "show": false
        }
      ],
      "yaxis": {
        "align": false,
        "alignLevel": null
      }
    }
  ],
  "schemaVersion": 18,
  "style": "dark",
  "tags": [],
  "templating": {
    "list": []
  },
  "time": {
    "from": "now-15m",
    "to": "now"
  },
  "timepicker": {
    "refresh_intervals": [
      "5s",
      "10s",
      "30s",
      "1m",
      "5m",
      "15m",
      "30m",
      "1h",
      "2h",
      "1d"
    ],
    "time_options": [
      "5m",
      "15m",
      "1h",
      "6h",
      "12h",
      "24h",
      "2d",
      "7d",
      "30d"
    ]
  },
  "version": 2
}
}
